@startuml

skinparam handwritten true

skinparam usecase {
    BackgroundColor DarkSeaGreen
    BorderColor DarkSlateGray
    BackgroundColor<< Main >> YellowGreen
    BorderColor<< Main >> YellowGreen
    ArrowColor Olive
    ActorBorderColor black
    ActorFontName Courier
    ActorBackgroundColor<< Human >> Gold
}

EndUser1 << user >>
EndUser2 << user >>

(Content) << incluiding image, link, youtube link. >>
(Ranking Chart) as (Chart) << 1 day or 1 weeks or 1 month >>


EndUser1 -> (Content) : End user can post \nincluiding image, link, youtube link.

Chart -> (EndUser1)
Chart -> (EndUser2) : End user can read charts

Content ---> (Chart) : grade > 0, likecount > min likecount


note right of Content : "Contents are periodically extracted to chart by calling \nupdateChartByingCheckLikeCountFromContents function from the cloud platform."


@enduml